{
	"info": {
		"_postman_id": "a958cca1-45b9-40a1-bf0b-c0e23e67a699",
		"name": "API Mascotas",
		"schema": "https://schema.getpostman.com/json/collection/v2.1.0/collection.json",
		"_exporter_id": "7474664",
		"_collection_link": "https://www.postman.com/warped-desert-7777/workspace/prueba-base2/collection/7474664-a958cca1-45b9-40a1-bf0b-c0e23e67a699?action=share&creator=7474664&source=collection_link"
	},
	"item": [
		{
			"name": "GET Mascotas",
			"request": {
				"method": "GET",
				"header": [],
				"url": {
					"raw": "http://localhost:8080/mascotas",
					"protocol": "http",
					"host": [
						"localhost"
					],
					"port": "8080",
					"path": [
						"mascotas"
					]
				}
			},
			"response": []
		},
		{
			"name": "GET Mascota",
			"request": {
				"method": "GET",
				"header": [],
				"url": {
					"raw": "http://localhost:8080/mascotas/3",
					"protocol": "http",
					"host": [
						"localhost"
					],
					"port": "8080",
					"path": [
						"mascotas",
						"3"
					]
				}
			},
			"response": []
		},
		{
			"name": "POST Mascota",
			"request": {
				"method": "POST",
				"header": [],
				"body": {
					"mode": "raw",
					"raw": "  {\n    \"familia\": \"gato\",\n    \"nombre\": \"OTTO GATO\",\n    \"edad\": 4,\n    \"descripcion\": \"El otto gato\",\n    \"raza\": \"angora\"\n  }",
					"options": {
						"raw": {
							"language": "json"
						}
					}
				},
				"url": {
					"raw": "http://localhost:8080/mascotas",
					"protocol": "http",
					"host": [
						"localhost"
					],
					"port": "8080",
					"path": [
						"mascotas"
					]
				}
			},
			"response": []
		},
		{
			"name": "PUT Mascota",
			"request": {
				"method": "PUT",
				"header": [],
				"body": {
					"mode": "raw",
					"raw": "{\n    \"familia\": \"perro\",\n    \"nombre\": \"Joe\",\n    \"edad\": 5,\n    \"descripcion\": \"Un perro Muy grande\",\n    \"id-mascota\": \"3\",\n    \"tipo\": \"gigante\"\n}",
					"options": {
						"raw": {
							"language": "json"
						}
					}
				},
				"url": {
					"raw": "http://localhost:8080/mascotas/3",
					"protocol": "http",
					"host": [
						"localhost"
					],
					"port": "8080",
					"path": [
						"mascotas",
						"3"
					]
				}
			},
			"response": []
		},
		{
			"name": "DELETE Mascota",
			"request": {
				"method": "DELETE",
				"header": [],
				"url": {
					"raw": "http://localhost:8080/mascotas/3",
					"protocol": "http",
					"host": [
						"localhost"
					],
					"port": "8080",
					"path": [
						"mascotas",
						"3"
					]
				}
			},
			"response": []
		}
	]
}